\relax 
\providecommand\hyper@newdestlabel[2]{}
\providecommand\HyperFirstAtBeginDocument{\AtBeginDocument}
\HyperFirstAtBeginDocument{\ifx\hyper@anchor\@undefined
\global\let\oldcontentsline\contentsline
\gdef\contentsline#1#2#3#4{\oldcontentsline{#1}{#2}{#3}}
\global\let\oldnewlabel\newlabel
\gdef\newlabel#1#2{\newlabelxx{#1}#2}
\gdef\newlabelxx#1#2#3#4#5#6{\oldnewlabel{#1}{{#2}{#3}}}
\AtEndDocument{\ifx\hyper@anchor\@undefined
\let\contentsline\oldcontentsline
\let\newlabel\oldnewlabel
\fi}
\fi}
\global\let\hyper@last\relax 
\gdef\HyperFirstAtBeginDocument#1{#1}
\providecommand\HyField@AuxAddToFields[1]{}
\providecommand\HyField@AuxAddToCoFields[2]{}
\@writefile{toc}{\contentsline {paragraph}{}{1}{section*.2}}
\citation{InvertibleIntegerDCT}
\@writefile{toc}{\contentsline {section}{\numberline {1}Introducci\IeC {\'o}n}{2}{section.1}}
\@writefile{toc}{\contentsline {paragraph}{}{2}{section*.3}}
\citation{repository}
\@writefile{toc}{\contentsline {section}{\numberline {2}Metodolog\IeC {\'\i }a}{3}{section.2}}
\@writefile{toc}{\contentsline {paragraph}{}{3}{section*.4}}
\@writefile{toc}{\contentsline {subsection}{\numberline {2.1}Manejo de im\IeC {\'a}genes}{3}{subsection.2.1}}
\@writefile{toc}{\contentsline {subsection}{\numberline {2.2}Implementaci\IeC {\'o}n de FFT}{3}{subsection.2.2}}
\@writefile{toc}{\contentsline {subsubsection}{\numberline {2.2.1}Matrices de Lifting}{3}{subsubsection.2.2.1}}
\@writefile{toc}{\contentsline {paragraph}{}{3}{section*.5}}
\@writefile{toc}{\contentsline {subsubsection}{\numberline {2.2.2}Butterflies}{4}{subsubsection.2.2.2}}
\@writefile{toc}{\contentsline {paragraph}{}{4}{section*.6}}
\@writefile{toc}{\contentsline {paragraph}{}{4}{section*.7}}
\@writefile{toc}{\contentsline {subsection}{\numberline {2.3}Extra: Im\IeC {\'a}genes en RGB}{4}{subsection.2.3}}
\@writefile{lof}{\contentsline {figure}{\numberline {1}{\ignorespaces Esquema donde se muestra el orden de multiplicaci\IeC {\'o}n de cada elemento del vector por la matriz butterfly correspondiente a la etapa de la FFT en la que se encuentra. Donde cada cruz(X) simboliza un entero no complejo y los c\IeC {\'\i }rculos(O) representan a los enteros complejos.}}{5}{figure.1}}
\newlabel{fig:butterflies}{{1}{5}{Esquema donde se muestra el orden de multiplicación de cada elemento del vector por la matriz butterfly correspondiente a la etapa de la FFT en la que se encuentra. Donde cada cruz(X) simboliza un entero no complejo y los círculos(O) representan a los enteros complejos}{figure.1}{}}
\@writefile{toc}{\contentsline {paragraph}{}{5}{section*.8}}
\@writefile{toc}{\contentsline {paragraph}{}{6}{section*.9}}
\@writefile{toc}{\contentsline {paragraph}{}{7}{section*.10}}
\@writefile{toc}{\contentsline {subsection}{\numberline {2.4}Transformada de Coseno Discreta}{7}{subsection.2.4}}
\@writefile{toc}{\contentsline {section}{\numberline {3}Extra: Im\IeC {\'a}genes en RGB}{8}{section.3}}
\@writefile{toc}{\contentsline {section}{\numberline {4}Resultados y Conclusiones}{9}{section.4}}
\@writefile{toc}{\contentsline {section}{\numberline {5}Anexo}{10}{section.5}}
\newlabel{sec:anexo}{{5}{10}{Anexo}{section.5}{}}
\bibcite{InvertibleIntegerDCT}{1}
\bibcite{repository}{2}
